"","nazwa","ekran","pamiec_RAM","dysk","cena","liczb_opinii","ocena","status_opinii"
"1","Air","13,3 ""","8 GB","128GB SSD",2599,9,"5","mniej 50 opinii"
"2","Pro","13,3 ""","8 GB","128GB SSD",2400,20,"5","mniej 50 opinii"
"3","Retina","15,2 ""","8 GB ","256GB SSD ",1999,199,"3","wiecej 100 opinii"
"4","Air 2","13,3 ""","8 GB ","512GB SSD ",2199,219,"5","wiecej 100 opinii"
"5","Pro 2","16 ""","16 GB","256GB SSD",3199,39,"4","mniej 50 opinii"
"6","Pro Air","15,4 ""","4 GB","256GB SSD",3099,99,"5","50-100 opinii"
"7","Pro 3","13,3 ""","8 GB","128GB SSD",2699,26,"5","mniej 50 opinii"
"8","Pro 4","15,4 ""","16 GB","512GB SSD",3599,359,"5","wiecej 100 opinii"
"9","Air 3 ","16 ""","16 GB","256GB SSD",3099,99,"3","50-100 opinii"
"10","Retina 2"," 13,3 """," 8 GB"," 512GB SSD",3099,30,"2","mniej 50 opinii"
"11","Pro Retina","30 ""","8 GB","256GB SSD",3099,19,"4","mniej 50 opinii"
"12","Pro Mini","25 ""","16 GB","256GB SSD",3299,12,"5","mniej 50 opinii"
"13","Pro Mini 2","15 ""","16 GB","256GB SSD",3099,12,"4","mniej 50 opinii"
"14","Pro Mac","15 ""","8 GB","256GB SSD",2799,12,"5","mniej 50 opinii"
"15","Pro 9","15 ""","16 GB","512GB SSD",4799,52,"5","50-100 opinii"
